[
  {
    "blood": {
      "bloodId": "qU8f2amYE6g0lvWkWVDr6MoSZGm7I7",
      "bloodType": "0",
      "rh": "-"
    },
    "volume": 500
  },
  {
    "blood": {
      "bloodId": "B7VNPQIttiH2S6FZwY7QQeGgtOEORU",
      "bloodType": "0",
      "rh": "+"
    },
    "volume": 1000
  },
  {
    "blood": {
      "bloodId": "xA9vOITMrLyCwOgmrlXGaLwJ61RM2V",
      "bloodType": "A",
      "rh": "-"
    },
    "volume": 100
  },
  {
    "blood": {
      "bloodId": "H1VOgMQbwfUA0CjaBmiUvcdm3bStZH",
      "bloodType": "A",
      "rh": "+"
    },
    "volume": 5000
  },
  {
    "blood": {
      "bloodId": "mVUqeQFHf6BRFHmKzq05R0apclrJjE",
      "bloodType": "B",
      "rh": "-"
    },
    "volume": 600
  },
  {
    "blood": {
      "bloodId": "IMD3sFesALzSWeVDzJv1L6uv1rEJlG",
      "bloodType": "B",
      "rh": "+"
    },
    "volume": 200
  },
  {
    "blood": {
      "bloodId": "pdzSsf1k6lksbAMdbl83FQnAGMJm7k",
      "bloodType": "AB",
      "rh": "-"
    },
    "volume": 100
  },
  {
    "blood": {
      "bloodId": "v8vOOIDMVd2CKk3CwmJUCRVeAOGn67",
      "bloodType": "AB",
      "rh": "+"
    },
    "volume": 200
  }
]
