[
  {
    "centerId": "123",
    "name": "Regionalne Centrum Krwiodawstwa i Krwiolecznictwa w Białymstoku",
    "phoneNumber": "(85)7447002",
    "email": "sekretariat@rckik.bialystok.pl",
    "webSite": "http://www.rckik.bialystok.pl",
    "address": {
      "addressId": "456",
      "city": "Białystok",
      "postalCode": "15-950",
      "street": "M. Skłodowskiej-Curie 23",
      "latitude": "53.125764",
      "longitude":"23.162688"
    }
  },
  {
    "centerId": "C656T6ZnhsOrgo0hJN2IOcCQui64mn",
    "name": "Regionalne Centrum Krwiodawstwa i Krwiolecznictwa w Bydgoszczy",
    "phoneNumber": "(52)3226517",
    "email": "krew@rckik-bydgoszcz.com.pl",
    "webSite": "http://www.rckik-bydgoszcz.com.pl",
    "address": {
      "addressId": "tJNUmzQzF8cP8DMv19u5dN0ezpBkat",
      "city": "Bydgoszcz",
      "postalCode": "85-015",
      "street": "Markwarta 8",
      "latitude": "53.126154",
      "longitude": "18.012266"
    }
  }
]
